#VRML V1.0 ascii   


Separator {

  ShapeHints {
    vertexOrdering COUNTERCLOCKWISE

  }
  Separator {

    MatrixTransform {
      matrix 1 0 0 0
        0 1 0 0
        0 0 1 0
        197 30.822502 426 1

    }
    Material {
      ambientColor [ 1 1 1,
          1 1 1 ]
      diffuseColor [ 0.90050799 0.90050799 0.90050799,
          0.40000001 0.40000001 0.40000001 ]
      specularColor [ 0.25 0.25 0.25,
          0.25 0.25 0.25 ]
      emissiveColor [ 0 0 0,
          0 0 0 ]
      shininess [ 0.196078, 0.196078 ]
      transparency [ 0, 0 ]

    }
    MaterialBinding {
      value PER_FACE_INDEXED

    }
    Normal {
      vector [ -1 0 0,
          -1 0 0,
          -1 0 0,
          -1 0 0,
          -1 0 0,
          -1 0 0,
          -1 0 0,
          -1 0 0,
          -1 0 0,
          -1 0 0,
          -1 0 0,
          -1 0 0,
          -1 0 0,
          -1 0 0,
          -1 0 0,
          -1 0 0,
          -1 0 0,
          -1 0 0,
          -1 0 0,
          -1 0 0,
          -1 0 0,
          -1 0 0,
          -1 0 0,
          -1 0 0,
          0 0.30903399 0.951051,
          0 0.30903399 0.951051,
          0 0.30903399 0.951051,
          0 0.809021 0.58778,
          0 0.809021 0.58778,
          0 0.809021 0.58778,
          0 1 0,
          0 1 0,
          0 1 0,
          0 0.809021 -0.58778,
          0 0.809021 -0.58778,
          0 0.809021 -0.58778,
          0 0.30903399 -0.951051,
          0 0.30903399 -0.951051,
          0 0.30903399 -0.951051,
          0 -0.30903399 -0.951051,
          0 -0.30903399 -0.951051,
          0 -0.30903399 -0.951051,
          0 -0.809021 -0.58778,
          0 -0.809021 -0.58778,
          0 -0.809021 -0.58778,
          0 -1 0,
          0 -1 0,
          0 -1 0,
          0 -0.809021 0.58778,
          0 -0.809021 0.58778,
          0 -0.809021 0.58778,
          0 -0.30903399 0.951051,
          0 -0.30903399 0.951051,
          0 -0.30903399 0.951051,
          0 -0.30903399 0.951051,
          0 -0.30903399 0.951051,
          0 -0.30903399 0.951051,
          0 -0.809021 0.58778,
          0 -0.809021 0.58778,
          0 -0.809021 0.58778,
          0 -1 0,
          0 -1 0,
          0 -1 0,
          0 -0.809021 -0.58778,
          0 -0.809021 -0.58778,
          0 -0.809021 -0.58778,
          0 -0.30903399 -0.951051,
          0 -0.30903399 -0.951051,
          0 -0.30903399 -0.951051,
          0 0.30903399 -0.951051,
          0 0.30903399 -0.951051,
          0 0.30903399 -0.951051,
          0 0.809021 -0.58778,
          0 0.809021 -0.58778,
          0 0.809021 -0.58778,
          0 1 0,
          0 1 0,
          0 1 0,
          0 0.809021 0.58778,
          0 0.809021 0.58778,
          0 0.809021 0.58778,
          0 0.30903399 0.951051,
          0 0.30903399 0.951051,
          0 0.30903399 0.951051,
          0.70702302 -8.7e-005 0.70718998,
          0.70702302 -8.7e-005 0.70718998,
          0.70702302 -8.7e-005 0.70718998,
          0.70724899 2e-006 0.70696503,
          0.70724899 2e-006 0.70696503,
          0.70724899 2e-006 0.70696503,
          0.70710701 0 0.70710701,
          0.70710701 0 0.70710701,
          0.70710701 0 0.70710701,
          0.70710498 0 0.70710897,
          0.70710498 0 0.70710897,
          0.70710498 0 0.70710897,
          0.819175 -0.000155 0.57354301,
          0.819175 -0.000155 0.57354301,
          0.819175 -0.000155 0.57354301,
          0.81925398 4.6000001e-005 0.57343102,
          0.81925398 4.6000001e-005 0.57343102,
          0.81925398 4.6000001e-005 0.57343102,
          0.81904203 0 0.57373297,
          0.81904203 0 0.57373297,
          0.81904203 0 0.57373297,
          0.81921798 0 0.57348198,
          0.81921798 0 0.57348198,
          0.81921798 0 0.57348198,
          0.90623301 0 0.42277801,
          0.90623301 0 0.42277801,
          0.90623301 0 0.42277801,
          0.90628999 0.00074599998 0.42265701,
          0.90628999 0.00074599998 0.42265701,
          0.90628999 0.00074599998 0.42265701,
          0.90623301 0 -0.42277801,
          0.90623301 0 -0.42277801,
          0.90623301 0 -0.42277801,
          0.90628999 -0.00074599998 -0.42265701,
          0.90628999 -0.00074599998 -0.42265701,
          0.90628999 -0.00074599998 -0.42265701,
          0.819175 0.000155 -0.57354301,
          0.819175 0.000155 -0.57354301,
          0.819175 0.000155 -0.57354301,
          0.81925398 -4.6000001e-005 -0.57343102,
          0.81925398 -4.6000001e-005 -0.57343102,
          0.81925398 -4.6000001e-005 -0.57343102,
          0.81904203 0 -0.57373297,
          0.81904203 0 -0.57373297,
          0.81904203 0 -0.57373297,
          0.81921798 0 -0.57348198,
          0.81921798 0 -0.57348198,
          0.81921798 0 -0.57348198,
          0.70702302 8.7e-005 -0.70718998,
          0.70702302 8.7e-005 -0.70718998,
          0.70702302 8.7e-005 -0.70718998,
          0.70724899 -2e-006 -0.70696503,
          0.70724899 -2e-006 -0.70696503,
          0.70724899 -2e-006 -0.70696503,
          0.70710701 0 -0.70710701,
          0.70710701 0 -0.70710701,
          0.70710701 0 -0.70710701,
          0.70710498 0 -0.70710897,
          0.70710498 0 -0.70710897,
          0.70710498 0 -0.70710897,
          0.573605 -5.7000001e-005 -0.81913197,
          0.573605 -5.7000001e-005 -0.81913197,
          0.573605 -5.7000001e-005 -0.81913197,
          0.57320398 -3.9999999e-005 -0.81941301,
          0.57320398 -3.9999999e-005 -0.81941301,
          0.57320398 -3.9999999e-005 -0.81941301,
          0.57348502 0 -0.81921601,
          0.57348502 0 -0.81921601,
          0.57348502 0 -0.81921601,
          0.57320398 3.9999999e-005 -0.81941301,
          0.57320398 3.9999999e-005 -0.81941301,
          0.57320398 3.9999999e-005 -0.81941301,
          0.573605 5.7000001e-005 -0.81913197,
          0.573605 5.7000001e-005 -0.81913197,
          0.573605 5.7000001e-005 -0.81913197,
          0.57345903 0 -0.81923401,
          0.57345903 0 -0.81923401,
          0.57345903 0 -0.81923401,
          0.57348502 0 -0.81921601,
          0.57348502 0 -0.81921601,
          0.57348502 0 -0.81921601,
          0.422645 0 -0.906295,
          0.422645 0 -0.906295,
          0.422645 0 -0.906295,
          0.422645 0 -0.906295,
          0.422645 0 -0.906295,
          0.422645 0 -0.906295,
          0.25887299 0 -0.96591097,
          0.25887299 0 -0.96591097,
          0.25887299 0 -0.96591097,
          0.25887299 0 -0.96591097,
          0.25887299 0 -0.96591097,
          0.25887299 0 -0.96591097,
          0.087158002 0 -0.99619401,
          0.087158002 0 -0.99619401,
          0.087158002 0 -0.99619401,
          0.087158002 0 -0.99619401,
          0.087158002 0 -0.99619401,
          0.087158002 0 -0.99619401,
          -0.087158002 0 -0.99619401,
          -0.087158002 0 -0.99619401,
          -0.087158002 0 -0.99619401,
          -0.087158002 0 -0.99619401,
          -0.087158002 0 -0.99619401,
          -0.087158002 0 -0.99619401,
          -0.25887299 0 -0.96591097,
          -0.25887299 0 -0.96591097,
          -0.25887299 0 -0.96591097,
          -0.25887299 0 -0.96591097,
          -0.25887299 0 -0.96591097,
          -0.25887299 0 -0.96591097,
          -0.422645 0 -0.906295,
          -0.422645 0 -0.906295,
          -0.422645 0 -0.906295,
          -0.422645 0 -0.906295,
          -0.422645 0 -0.906295,
          -0.422645 0 -0.906295,
          -0.57348502 0 -0.81921601,
          -0.57348502 0 -0.81921601,
          -0.57348502 0 -0.81921601,
          -0.57348502 0 -0.81921601,
          -0.57348502 0 -0.81921601,
          -0.57348502 0 -0.81921601,
          -0.70710498 0 -0.70710897,
          -0.70710498 0 -0.70710897,
          -0.70710498 0 -0.70710897,
          -0.70710498 0 -0.70710897,
          -0.70710498 0 -0.70710897,
          -0.70710498 0 -0.70710897,
          -0.81921798 0 -0.57348198,
          -0.81921798 0 -0.57348198,
          -0.81921798 0 -0.57348198,
          -0.81921798 0 -0.57348198,
          -0.81921798 0 -0.57348198,
          -0.81921798 0 -0.57348198,
          -0.90629798 0 -0.42263901,
          -0.90629798 0 -0.42263901,
          -0.90629798 0 -0.42263901,
          -0.90629798 0 -0.42263901,
          -0.90629798 0 -0.42263901,
          -0.90629798 0 -0.42263901,
          -0.96591097 0 -0.258874,
          -0.96591097 0 -0.258874,
          -0.96591097 0 -0.258874,
          -0.96591097 0 -0.258874,
          -0.96591097 0 -0.258874,
          -0.96591097 0 -0.258874,
          -0.99619401 0 -0.087162003,
          -0.99619401 0 -0.087162003,
          -0.99619401 0 -0.087162003,
          -0.99619401 0 -0.087162003,
          -0.99619401 0 -0.087162003,
          -0.99619401 0 -0.087162003,
          -0.99619401 0 0.087162003,
          -0.99619401 0 0.087162003,
          -0.99619401 0 0.087162003,
          -0.99619401 0 0.087162003,
          -0.99619401 0 0.087162003,
          -0.99619401 0 0.087162003,
          -0.96591097 0 0.258874,
          -0.96591097 0 0.258874,
          -0.96591097 0 0.258874,
          -0.96591097 0 0.258874,
          -0.96591097 0 0.258874,
          -0.96591097 0 0.258874,
          -0.90629798 0 0.42263901,
          -0.90629798 0 0.42263901,
          -0.90629798 0 0.42263901,
          -0.90629798 0 0.42263901,
          -0.90629798 0 0.42263901,
          -0.90629798 0 0.42263901,
          -0.81921798 0 0.57348198,
          -0.81921798 0 0.57348198,
          -0.81921798 0 0.57348198,
          -0.81921798 0 0.57348198,
          -0.81921798 0 0.57348198,
          -0.81921798 0 0.57348198,
          -0.70710498 0 0.70710897,
          -0.70710498 0 0.70710897,
          -0.70710498 0 0.70710897,
          -0.70710498 0 0.70710897,
          -0.70710498 0 0.70710897,
          -0.70710498 0 0.70710897,
          -0.57348502 0 0.81921601,
          -0.57348502 0 0.81921601,
          -0.57348502 0 0.81921601,
          -0.57348502 0 0.81921601,
          -0.57348502 0 0.81921601,
          -0.57348502 0 0.81921601,
          -0.422645 0 0.906295,
          -0.422645 0 0.906295,
          -0.422645 0 0.906295,
          -0.422645 0 0.906295,
          -0.422645 0 0.906295,
          -0.422645 0 0.906295,
          -0.25887299 0 0.96591097,
          -0.25887299 0 0.96591097,
          -0.25887299 0 0.96591097,
          -0.25887299 0 0.96591097,
          -0.25887299 0 0.96591097,
          -0.25887299 0 0.96591097,
          -0.087158002 0 0.99619401,
          -0.087158002 0 0.99619401,
          -0.087158002 0 0.99619401,
          -0.087158002 0 0.99619401,
          -0.087158002 0 0.99619401,
          -0.087158002 0 0.99619401,
          0.087158002 0 0.99619401,
          0.087158002 0 0.99619401,
          0.087158002 0 0.99619401,
          0.087158002 0 0.99619401,
          0.087158002 0 0.99619401,
          0.087158002 0 0.99619401,
          0.25887299 0 0.96591097,
          0.25887299 0 0.96591097,
          0.25887299 0 0.96591097,
          0.25887299 0 0.96591097,
          0.25887299 0 0.96591097,
          0.25887299 0 0.96591097,
          0.422645 0 0.906295,
          0.422645 0 0.906295,
          0.422645 0 0.906295,
          0.422645 0 0.906295,
          0.422645 0 0.906295,
          0.422645 0 0.906295,
          0.573605 5.7000001e-005 0.81913197,
          0.573605 5.7000001e-005 0.81913197,
          0.573605 5.7000001e-005 0.81913197,
          0.57320398 3.9999999e-005 0.81941301,
          0.57320398 3.9999999e-005 0.81941301,
          0.57320398 3.9999999e-005 0.81941301,
          0.57348502 0 0.81921601,
          0.57348502 0 0.81921601,
          0.57348502 0 0.81921601,
          0.57320398 -3.9999999e-005 0.81941301,
          0.57320398 -3.9999999e-005 0.81941301,
          0.57320398 -3.9999999e-005 0.81941301,
          0.573605 -5.7000001e-005 0.81913197,
          0.573605 -5.7000001e-005 0.81913197,
          0.573605 -5.7000001e-005 0.81913197,
          0.57345903 0 0.81923401,
          0.57345903 0 0.81923401,
          0.57345903 0 0.81923401,
          0.57348502 0 0.81921601,
          0.57348502 0 0.81921601,
          0.57348502 0 0.81921601,
          0.70710498 0 0.70710897,
          0.70710498 0 0.70710897,
          0.70710498 0 0.70710897,
          0.70702302 8.7e-005 0.70718998,
          0.70702302 8.7e-005 0.70718998,
          0.70702302 8.7e-005 0.70718998,
          0.70724899 -2e-006 0.70696503,
          0.70724899 -2e-006 0.70696503,
          0.70724899 -2e-006 0.70696503,
          0.70710701 0 0.70710701,
          0.70710701 0 0.70710701,
          0.70710701 0 0.70710701,
          0.81921798 0 0.57348198,
          0.81921798 0 0.57348198,
          0.81921798 0 0.57348198,
          0.819175 0.000155 0.57354301,
          0.819175 0.000155 0.57354301,
          0.819175 0.000155 0.57354301,
          0.81925398 -4.6000001e-005 0.57343102,
          0.81925398 -4.6000001e-005 0.57343102,
          0.81925398 -4.6000001e-005 0.57343102,
          0.81904203 0 0.57373297,
          0.81904203 0 0.57373297,
          0.81904203 0 0.57373297,
          0.90628999 -0.00074599998 0.42265701,
          0.90628999 -0.00074599998 0.42265701,
          0.90628999 -0.00074599998 0.42265701,
          0.90623301 0 0.42277801,
          0.90623301 0 0.42277801,
          0.90623301 0 0.42277801,
          0.90628999 0.00074599998 -0.42265701,
          0.90628999 0.00074599998 -0.42265701,
          0.90628999 0.00074599998 -0.42265701,
          0.90623301 0 -0.42277801,
          0.90623301 0 -0.42277801,
          0.90623301 0 -0.42277801,
          0.81921798 0 -0.57348198,
          0.81921798 0 -0.57348198,
          0.81921798 0 -0.57348198,
          0.819175 -0.000155 -0.57354301,
          0.819175 -0.000155 -0.57354301,
          0.819175 -0.000155 -0.57354301,
          0.81925398 4.6000001e-005 -0.57343102,
          0.81925398 4.6000001e-005 -0.57343102,
          0.81925398 4.6000001e-005 -0.57343102,
          0.81904203 0 -0.57373297,
          0.81904203 0 -0.57373297,
          0.81904203 0 -0.57373297,
          0.70710498 0 -0.70710897,
          0.70710498 0 -0.70710897,
          0.70710498 0 -0.70710897,
          0.70702302 -8.7e-005 -0.70718998,
          0.70702302 -8.7e-005 -0.70718998,
          0.70702302 -8.7e-005 -0.70718998,
          0.70724899 2e-006 -0.70696503,
          0.70724899 2e-006 -0.70696503,
          0.70724899 2e-006 -0.70696503,
          0.70710701 0 -0.70710701,
          0.70710701 0 -0.70710701,
          0.70710701 0 -0.70710701,
          0 1 0,
          0 1 0,
          0 1 0,
          0 1 0,
          0 1 0,
          0 1 0,
          0 1 0,
          0 1 0,
          0 1 0,
          0 1 0,
          0 1 0,
          0 1 0,
          0 1 0,
          0 1 0,
          0 1 0,
          0 1 0,
          0 1 0,
          0 1 0,
          0 1 0,
          0 1 0,
          0 1 0,
          0 1 0,
          0 1 0,
          0 1 0,
          0 1 0,
          0 1 0,
          0 1 0,
          0 1 0,
          0 1 0,
          0 1 0,
          0 1 0,
          0 1 0,
          0 1 0,
          0 1 0,
          0 1 0,
          0 1 0,
          0 1 0,
          0 1 0,
          0 1 0,
          0 1 0,
          0 1 0,
          0 1 0,
          0 1 0,
          0 1 0,
          0 1 0,
          0 1 0,
          0 1 0,
          0 1 0,
          0 1 0,
          0 1 0,
          0 1 0,
          0 1 0,
          0 1 0,
          0 1 0,
          0 1 0,
          0 1 0,
          0 1 0,
          0 1 0,
          0 1 0,
          0 1 0,
          0 1 0,
          0 1 0,
          0 1 0,
          0 1 0,
          0 1 0,
          0 1 0,
          0 1 0,
          0 1 0,
          0 1 0,
          0 1 0,
          0 1 0,
          0 1 0,
          0 1 0,
          0 1 0,
          0 1 0,
          0 1 0,
          0 1 0,
          0 1 0,
          0 1 0,
          0 1 0,
          0 1 0,
          0 1 0,
          0 1 0,
          0 1 0,
          0 1 0,
          0 1 0,
          0 1 0,
          0 1 0,
          0 1 0,
          0 1 0,
          0 1 0,
          0 1 0,
          0 1 0,
          0 1 0,
          0 1 0,
          0 1 0,
          0 1 0,
          0 1 0,
          0 1 0,
          0 -1 0,
          0 -1 0,
          0 -1 0,
          0 -1 0,
          0 -1 0,
          0 -1 0,
          0 -1 0,
          0 -1 0,
          0 -1 0,
          0 -1 0,
          0 -1 0,
          0 -1 0,
          0 -1 0,
          0 -1 0,
          0 -1 0,
          0 -1 0,
          0 -1 0,
          0 -1 0,
          0 -1 0,
          0 -1 0,
          0 -1 0,
          0 -1 0,
          0 -1 0,
          0 -1 0,
          0 -1 0,
          0 -1 0,
          0 -1 0,
          0 -1 0,
          0 -1 0,
          0 -1 0,
          0 -1 0,
          0 -1 0,
          0 -1 0,
          0 -1 0,
          0 -1 0,
          0 -1 0,
          0 -1 0,
          0 -1 0,
          0 -1 0,
          0 -1 0,
          0 -1 0,
          0 -1 0,
          0 -1 0,
          0 -1 0,
          0 -1 0,
          0 -1 0,
          0 -1 0,
          0 -1 0,
          0 -1 0,
          0 -1 0,
          0 -1 0,
          0 -1 0,
          0 -1 0,
          0 -1 0,
          0 -1 0,
          0 -1 0,
          0 -1 0,
          0 -1 0,
          0 -1 0,
          0 -1 0,
          0 -1 0,
          0 -1 0,
          0 -1 0,
          0 -1 0,
          0 -1 0,
          0 -1 0,
          0 -1 0,
          0 -1 0,
          0 -1 0,
          0 -1 0,
          0 -1 0,
          0 -1 0,
          0 -1 0,
          0 -1 0,
          0 -1 0,
          0 -1 0,
          0 -1 0,
          0 -1 0,
          0 -1 0,
          0 -1 0,
          0 -1 0,
          0 -1 0,
          0 -1 0,
          0 -1 0,
          0 -1 0,
          0 -1 0,
          0 -1 0,
          0 -1 0,
          0 -1 0,
          0 -1 0,
          0 -1 0,
          0 -1 0,
          0 -1 0,
          0 -1 0,
          0 -1 0,
          0 -1 0,
          0 -1 0,
          0 -1 0,
          0 -1 0,
          0 -1 0,
          0 -1 0,
          0 -1 0,
          0 -1 0,
          0 -1 0,
          0 -1 0,
          0 -1 0,
          0 -1 0,
          0 -1 0,
          0 -1 0,
          0 -1 0,
          0 -1 0,
          0 -1 0,
          0 -1 0,
          0 -1 0,
          0 -1 0,
          0 -1 0,
          0 -1 0,
          0 -1 0,
          0 -1 0,
          0 -1 0,
          0 -1 0,
          0 -1 0,
          0 -1 0,
          0 -1 0,
          0 -1 0,
          0 -1 0,
          0 -1 0,
          0 -1 0,
          0 -1 0,
          0 -1 0,
          0 -1 0,
          0 -1 0,
          0 -1 0,
          0 -1 0,
          0 -1 0,
          0 -0.087045997 -0.99620402,
          0 -0.087045997 -0.99620402,
          0 -0.087045997 -0.99620402,
          0 -0.087045997 -0.99620402,
          0 -0.087045997 -0.99620402,
          0 -0.087045997 -0.99620402,
          0 0.087045997 -0.99620402,
          0 0.087045997 -0.99620402,
          0 0.087045997 -0.99620402,
          0 0.087045997 -0.99620402,
          0 0.087045997 -0.99620402,
          0 0.087045997 -0.99620402,
          0 0.087045997 0.99620402,
          0 0.087045997 0.99620402,
          0 0.087045997 0.99620402,
          0 0.087045997 0.99620402,
          0 0.087045997 0.99620402,
          0 0.087045997 0.99620402,
          0 -0.087045997 0.99620402,
          0 -0.087045997 0.99620402,
          0 -0.087045997 0.99620402,
          0 -0.087045997 0.99620402,
          0 -0.087045997 0.99620402,
          0 -0.087045997 0.99620402,
          0 0.42271101 0.90626502,
          0 0.42271101 0.90626502,
          0 0.42271101 0.90626502,
          0 0.42271101 0.90626502,
          0 0.42271101 0.90626502,
          0 0.42271101 0.90626502,
          0 0.25885201 0.96591699,
          0 0.25885201 0.96591699,
          0 0.25885201 0.96591699,
          -5.7000001e-005 0.25859901 0.965985,
          -5.7000001e-005 0.25859901 0.965985,
          -5.7000001e-005 0.25859901 0.965985,
          0 0.258872 0.96591198,
          0 0.258872 0.96591198,
          0 0.258872 0.96591198,
          -5.7000001e-005 -0.25859901 0.965985,
          -5.7000001e-005 -0.25859901 0.965985,
          -5.7000001e-005 -0.25859901 0.965985,
          0 -0.258872 0.96591198,
          0 -0.258872 0.96591198,
          0 -0.258872 0.96591198,
          0 -0.25885201 0.96591699,
          0 -0.25885201 0.96591699,
          0 -0.25885201 0.96591699,
          0 -0.42271101 0.90626502,
          0 -0.42271101 0.90626502,
          0 -0.42271101 0.90626502,
          0 -0.42271101 0.90626502,
          0 -0.42271101 0.90626502,
          0 -0.42271101 0.90626502,
          0 0.70710999 0.70710403,
          0 0.70710999 0.70710403,
          0 0.70710999 0.70710403,
          0 0.70710999 0.70710403,
          0 0.70710999 0.70710403,
          0 0.70710999 0.70710403,
          0 0.57350802 0.81919998,
          0 0.57350802 0.81919998,
          0 0.57350802 0.81919998,
          4.2e-005 0.57363403 0.819112,
          4.2e-005 0.57363403 0.819112,
          4.2e-005 0.57363403 0.819112,
          0 0.573461 0.819233,
          0 0.573461 0.819233,
          0 0.573461 0.819233,
          4.2e-005 -0.57363403 0.819112,
          4.2e-005 -0.57363403 0.819112,
          4.2e-005 -0.57363403 0.819112,
          0 -0.573461 0.819233,
          0 -0.573461 0.819233,
          0 -0.573461 0.819233,
          0 -0.57350802 0.81919998,
          0 -0.57350802 0.81919998,
          0 -0.57350802 0.81919998,
          0 -0.70710999 0.70710403,
          0 -0.70710999 0.70710403,
          0 -0.70710999 0.70710403,
          0 -0.70710999 0.70710403,
          0 -0.70710999 0.70710403,
          0 -0.70710999 0.70710403,
          0 0.819197 0.57351297,
          0 0.819197 0.57351297,
          0 0.819197 0.57351297,
          7.0000001e-006 0.81920803 0.57349598,
          7.0000001e-006 0.81920803 0.57349598,
          7.0000001e-006 0.81920803 0.57349598,
          0 0.81914097 0.57359302,
          0 0.81914097 0.57359302,
          0 0.81914097 0.57359302,
          7.0000001e-006 -0.81920803 0.57349598,
          7.0000001e-006 -0.81920803 0.57349598,
          7.0000001e-006 -0.81920803 0.57349598,
          0 -0.81914097 0.57359302,
          0 -0.81914097 0.57359302,
          0 -0.81914097 0.57359302,
          0 -0.819197 0.57351297,
          0 -0.819197 0.57351297,
          0 -0.819197 0.57351297,
          0 -0.819197 -0.57351297,
          0 -0.819197 -0.57351297,
          0 -0.819197 -0.57351297,
          7.0000001e-006 -0.81920803 -0.57349598,
          7.0000001e-006 -0.81920803 -0.57349598,
          7.0000001e-006 -0.81920803 -0.57349598,
          0 -0.81914097 -0.57359302,
          0 -0.81914097 -0.57359302,
          0 -0.81914097 -0.57359302,
          0 -0.70710999 -0.70710403,
          0 -0.70710999 -0.70710403,
          0 -0.70710999 -0.70710403,
          0 -0.70710999 -0.70710403,
          0 -0.70710999 -0.70710403,
          0 -0.70710999 -0.70710403,
          0 0.70710999 -0.70710403,
          0 0.70710999 -0.70710403,
          0 0.70710999 -0.70710403,
          0 0.70710999 -0.70710403,
          0 0.70710999 -0.70710403,
          0 0.70710999 -0.70710403,
          7.0000001e-006 0.81920803 -0.57349598,
          7.0000001e-006 0.81920803 -0.57349598,
          7.0000001e-006 0.81920803 -0.57349598,
          0 0.81914097 -0.57359302,
          0 0.81914097 -0.57359302,
          0 0.81914097 -0.57359302,
          0 0.819197 -0.57351297,
          0 0.819197 -0.57351297,
          0 0.819197 -0.57351297,
          0 -0.57350802 -0.81919998,
          0 -0.57350802 -0.81919998,
          0 -0.57350802 -0.81919998,
          4.2e-005 -0.57363403 -0.819112,
          4.2e-005 -0.57363403 -0.819112,
          4.2e-005 -0.57363403 -0.819112,
          0 -0.573461 -0.819233,
          0 -0.573461 -0.819233,
          0 -0.573461 -0.819233,
          0 -0.42271101 -0.90626502,
          0 -0.42271101 -0.90626502,
          0 -0.42271101 -0.90626502,
          0 -0.42271101 -0.90626502,
          0 -0.42271101 -0.90626502,
          0 -0.42271101 -0.90626502,
          0 -0.25885201 -0.96591699,
          0 -0.25885201 -0.96591699,
          0 -0.25885201 -0.96591699,
          -5.7000001e-005 -0.25859901 -0.965985,
          -5.7000001e-005 -0.25859901 -0.965985,
          -5.7000001e-005 -0.25859901 -0.965985,
          0 -0.258872 -0.96591198,
          0 -0.258872 -0.96591198,
          0 -0.258872 -0.96591198,
          -5.7000001e-005 0.25859901 -0.965985,
          -5.7000001e-005 0.25859901 -0.965985,
          -5.7000001e-005 0.25859901 -0.965985,
          0 0.258872 -0.96591198,
          0 0.258872 -0.96591198,
          0 0.258872 -0.96591198,
          0 0.25885201 -0.96591699,
          0 0.25885201 -0.96591699,
          0 0.25885201 -0.96591699,
          0 0.42271101 -0.90626502,
          0 0.42271101 -0.90626502,
          0 0.42271101 -0.90626502,
          0 0.42271101 -0.90626502,
          0 0.42271101 -0.90626502,
          0 0.42271101 -0.90626502,
          4.2e-005 0.57363403 -0.819112,
          4.2e-005 0.57363403 -0.819112,
          4.2e-005 0.57363403 -0.819112,
          0 0.573461 -0.819233,
          0 0.573461 -0.819233,
          0 0.573461 -0.819233,
          0 0.57350802 -0.81919998,
          0 0.57350802 -0.81919998,
          0 0.57350802 -0.81919998,
          0 0.90621299 0.42282099,
          0 0.90621299 0.42282099,
          0 0.90621299 0.42282099,
          0 0.90621299 0.42282099,
          0 0.90621299 0.42282099,
          0 0.90621299 0.42282099,
          0 0.90621299 -0.42282099,
          0 0.90621299 -0.42282099,
          0 0.90621299 -0.42282099,
          0 0.90621299 -0.42282099,
          0 0.90621299 -0.42282099,
          0 0.90621299 -0.42282099,
          0 -0.90621299 0.42282099,
          0 -0.90621299 0.42282099,
          0 -0.90621299 0.42282099,
          0 -0.90621299 0.42282099,
          0 -0.90621299 0.42282099,
          0 -0.90621299 0.42282099,
          0 -0.90621299 -0.42282099,
          0 -0.90621299 -0.42282099,
          0 -0.90621299 -0.42282099,
          0 -0.90621299 -0.42282099,
          0 -0.90621299 -0.42282099,
          0 -0.90621299 -0.42282099,
          1 0 0,
          1 0 0,
          1 0 0,
          1 0 0,
          1 0 0,
          1 0 0,
          1 0 0,
          1 0 0,
          1 0 0,
          1 0 0,
          1 0 0,
          1 0 0,
          1 0 0,
          1 0 0,
          1 0 0,
          1 0 0,
          1 0 0,
          1 0 0,
          1 0 0,
          1 0 0,
          1 0 0,
          1 0 0,
          1 0 0,
          1 0 0,
          1 0 0,
          1 0 0,
          1 0 0,
          1 0 0,
          1 0 0,
          1 0 0,
          1 0 0,
          1 0 0,
          1 0 0,
          1 0 0,
          1 0 0,
          1 0 0,
          1 0 0,
          1 0 0,
          1 0 0,
          1 0 0,
          1 0 0,
          1 0 0,
          1 0 0,
          1 0 0,
          1 0 0,
          1 0 0,
          1 0 0,
          1 0 0,
          1 0 0,
          1 0 0,
          1 0 0,
          1 0 0,
          1 0 0,
          1 0 0,
          1 0 0,
          1 0 0,
          1 0 0,
          1 0 0,
          1 0 0,
          1 0 0,
          1 0 0,
          1 0 0,
          1 0 0,
          1 0 0,
          1 0 0,
          1 0 0,
          1 0 0,
          1 0 0,
          1 0 0,
          1 0 0,
          1 0 0,
          1 0 0,
          1 0 0,
          1 0 0,
          1 0 0,
          1 0 0,
          1 0 0,
          1 0 0,
          1 0 0,
          1 0 0,
          1 0 0,
          1 0 0,
          1 0 0,
          1 0 0,
          1 0 0,
          1 0 0,
          1 0 0,
          1 0 0,
          1 0 0,
          1 0 0,
          1 0 0,
          1 0 0,
          1 0 0,
          1 0 0,
          1 0 0,
          1 0 0,
          1 0 0,
          1 0 0,
          1 0 0,
          1 0 0,
          1 0 0,
          1 0 0,
          1 0 0,
          1 0 0,
          1 0 0,
          1 0 0,
          1 0 0,
          1 0 0,
          1 0 0,
          1 0 0,
          1 0 0,
          1 0 0,
          1 0 0,
          1 0 0,
          1 0 0,
          1 0 0,
          1 0 0,
          1 0 0,
          1 0 0,
          1 0 0,
          0 -1 0,
          0 -1 0,
          0 -1 0,
          0 -1 0,
          0 -1 0,
          0 -1 0,
          0 -1 0,
          0 -1 0,
          0 -1 0,
          0 -1 0,
          0 -1 0,
          0 -1 0,
          0 -1 0,
          0 -1 0,
          0 -1 0,
          0 -1 0,
          0 -1 0,
          0 -1 0,
          0 -1 0,
          0 -1 0,
          0 -1 0,
          0 -1 0,
          0 -1 0,
          0 -1 0,
          0.951051 0 -0.30903301,
          0.951051 0 -0.30903301,
          0.951051 0 -0.30903301,
          0.58777899 0 -0.80902201,
          0.58777899 0 -0.80902201,
          0.58777899 0 -0.80902201,
          0 0 -1,
          0 0 -1,
          0 0 -1,
          -0.58777899 0 -0.80902201,
          -0.58777899 0 -0.80902201,
          -0.58777899 0 -0.80902201,
          -0.951051 0 -0.30903301,
          -0.951051 0 -0.30903301,
          -0.951051 0 -0.30903301,
          -0.951051 0 0.30903301,
          -0.951051 0 0.30903301,
          -0.951051 0 0.30903301,
          -0.58777899 0 0.80902201,
          -0.58777899 0 0.80902201,
          -0.58777899 0 0.80902201,
          0 0 1,
          0 0 1,
          0 0 1,
          0.58777899 0 0.80902201,
          0.58777899 0 0.80902201,
          0.58777899 0 0.80902201,
          0.951051 0 0.30903301,
          0.951051 0 0.30903301,
          0.951051 0 0.30903301,
          0.951051 0 0.30903301,
          0.951051 0 0.30903301,
          0.951051 0 0.30903301,
          0.58777899 0 0.80902201,
          0.58777899 0 0.80902201,
          0.58777899 0 0.80902201,
          0 0 1,
          0 0 1,
          0 0 1,
          -0.58777899 0 0.80902201,
          -0.58777899 0 0.80902201,
          -0.58777899 0 0.80902201,
          -0.951051 0 0.30903301,
          -0.951051 0 0.30903301,
          -0.951051 0 0.30903301,
          -0.951051 0 -0.30903301,
          -0.951051 0 -0.30903301,
          -0.951051 0 -0.30903301,
          -0.58777899 0 -0.80902201,
          -0.58777899 0 -0.80902201,
          -0.58777899 0 -0.80902201,
          0 0 -1,
          0 0 -1,
          0 0 -1,
          0.58777899 0 -0.80902201,
          0.58777899 0 -0.80902201,
          0.58777899 0 -0.80902201,
          0.951051 0 -0.30903301,
          0.951051 0 -0.30903301,
          0.951051 0 -0.30903301,
          1 0 0,
          1 0 0,
          1 0 0,
          1 0 0,
          1 0 0,
          1 0 0,
          1 0 0,
          1 0 0,
          1 0 0,
          1 0 0,
          1 0 0,
          1 0 0,
          1 0 0,
          1 0 0,
          1 0 0,
          1 0 0,
          1 0 0,
          1 0 0,
          0 -0.30903399 -0.951051,
          0 -0.30903399 -0.951051,
          0 -0.30903399 -0.951051,
          0 -0.809021 -0.58778,
          0 -0.809021 -0.58778,
          0 -0.809021 -0.58778,
          0 -1 0,
          0 -1 0,
          0 -1 0,
          0 -0.809021 0.58778,
          0 -0.809021 0.58778,
          0 -0.809021 0.58778,
          0 -0.30903399 0.951051,
          0 -0.30903399 0.951051,
          0 -0.30903399 0.951051,
          0 0.30903399 0.951051,
          0 0.30903399 0.951051,
          0 0.30903399 0.951051,
          0 0.809021 0.58778,
          0 0.809021 0.58778,
          0 0.809021 0.58778,
          0 1 0,
          0 1 0,
          0 1 0,
          0 0.809021 -0.58778,
          0 0.809021 -0.58778,
          0 0.809021 -0.58778,
          0 0.30903399 -0.951051,
          0 0.30903399 -0.951051,
          0 0.30903399 -0.951051,
          0 0.30903399 -0.951051,
          0 0.30903399 -0.951051,
          0 0.30903399 -0.951051,
          0 0.809021 -0.58778,
          0 0.809021 -0.58778,
          0 0.809021 -0.58778,
          0 1 0,
          0 1 0,
          0 1 0,
          0 0.809021 0.58778,
          0 0.809021 0.58778,
          0 0.809021 0.58778,
          0 0.30903399 0.951051,
          0 0.30903399 0.951051,
          0 0.30903399 0.951051,
          0 -0.30903399 0.951051,
          0 -0.30903399 0.951051,
          0 -0.30903399 0.951051,
          0 -0.809021 0.58778,
          0 -0.809021 0.58778,
          0 -0.809021 0.58778,
          0 -1 0,
          0 -1 0,
          0 -1 0,
          0 -0.809021 -0.58778,
          0 -0.809021 -0.58778,
          0 -0.809021 -0.58778,
          0 -0.30903399 -0.951051,
          0 -0.30903399 -0.951051,
          0 -0.30903399 -0.951051 ]

    }
    NormalBinding {
      value PER_VERTEX

    }
    Coordinate3 {
      point [ 335 -22.005501 351.86499,
          335 -39.639503 351.86499,
          335 -45.088501 359.36499,
          335 -45.088501 368.63501,
          335 -39.639503 376.13501,
          335 -30.822502 379,
          335 -22.005501 376.13501,
          335 -16.556503 368.63501,
          335 -30.822502 349,
          335 -16.556503 359.36499,
          325 -22.005501 376.13501,
          325 -22.005501 351.86499,
          325 -30.822502 349,
          325 -16.556503 368.63501,
          325 -39.639503 351.86499,
          325 -39.639503 376.13501,
          325 -30.822502 379,
          325 -45.088501 359.36499,
          325 -16.556503 359.36499,
          325 -45.088501 368.63501,
          308.81 -1.822502 394.75897,
          311.315 -14.510502 392.25299,
          313.759 -11.020502 389.81,
          308.91199 -19.664501 394.65698,
          308.81 -20.045502 394.75897,
          313.759 -1.822502 389.81,
          317.14697 -5.830502 384.96997,
          317.77301 -5.2045021 384.07599,
          314.332 -9.8525028 388.992,
          317.77301 -1.822502 384.07599,
          319.52899 -2.5695021 380.31201,
          320.27502 -1.822502 378.711,
          317.77301 -59.822502 343.92401,
          317.77301 -56.440502 343.92401,
          319.52899 -59.0755 347.68799,
          320.27502 -59.822502 349.289,
          313.759 -59.822502 338.19,
          317.14697 -55.814503 343.03003,
          314.332 -51.792503 339.008,
          313.759 -50.624504 338.19,
          308.81 -59.822502 333.24103,
          311.315 -47.134502 335.74701,
          308.91199 -41.980503 333.34302,
          308.81 -41.599503 333.24103,
          303.07599 -59.822502 329.22699,
          306.854 -36.487503 331.87097,
          303.07599 -1.822502 329.22699,
          306.854 -25.157501 331.87097,
          306.146 -30.822502 331.37598,
          308.81 -1.822502 333.24103,
          308.81 -20.045502 333.24103,
          296.733 -1.822502 326.26898,
          296.733 -59.822502 326.26898,
          289.97198 -1.822502 324.45697,
          289.97198 -59.822502 324.45697,
          283 -1.822502 323.84698,
          283 -59.822502 323.84698,
          276.02802 -1.822502 324.45697,
          276.02802 -59.822502 324.45697,
          269.267 -1.822502 326.26898,
          269.267 -59.822502 326.26898,
          262.92401 -1.822502 329.22699,
          262.92401 -59.822502 329.22699,
          257.19 -1.822502 333.24103,
          257.19 -59.822502 333.24103,
          252.241 -1.822502 338.19,
          252.241 -59.822502 338.19,
          248.22699 -1.822502 343.92401,
          248.22699 -59.822502 343.92401,
          245.26901 -1.822502 350.26703,
          245.26901 -59.822502 350.26703,
          243.457 -1.822502 357.02802,
          243.457 -59.822502 357.02802,
          242.84698 -1.822502 364,
          242.84698 -59.822502 364,
          243.457 -1.822502 370.97198,
          243.457 -59.822502 370.97198,
          245.26901 -1.822502 377.73297,
          245.26901 -59.822502 377.73297,
          248.22699 -1.822502 384.07599,
          248.22699 -59.822502 384.07599,
          252.241 -1.822502 389.81,
          252.241 -59.822502 389.81,
          257.19 -1.822502 394.75897,
          257.19 -59.822502 394.75897,
          262.92401 -1.822502 398.77301,
          262.92401 -59.822502 398.77301,
          269.267 -1.822502 401.73102,
          269.267 -59.822502 401.73102,
          276.02802 -1.822502 403.54303,
          276.02802 -59.822502 403.54303,
          283 -1.822502 404.15302,
          283 -59.822502 404.15302,
          289.97198 -1.822502 403.54303,
          289.97198 -59.822502 403.54303,
          296.733 -1.822502 401.73102,
          296.733 -59.822502 401.73102,
          303.07599 -1.822502 398.77301,
          303.07599 -59.822502 398.77301,
          306.854 -25.157501 396.12903,
          306.854 -36.487503 396.12903,
          306.146 -30.822502 396.62402,
          308.81 -59.822502 394.75897,
          308.81 -41.599503 394.75897,
          313.759 -59.822502 389.81,
          313.759 -50.624504 389.81,
          311.315 -47.134502 392.25299,
          308.91199 -41.980503 394.65698,
          317.77301 -59.822502 384.07599,
          317.77301 -56.440502 384.07599,
          317.14697 -55.814503 384.96997,
          314.332 -51.792503 388.992,
          320.27502 -59.822502 378.711,
          319.52899 -59.0755 380.31201,
          317.77301 -1.822502 343.92401,
          320.27502 -1.822502 349.289,
          319.52899 -2.5695021 347.68799,
          317.77301 -5.2045021 343.92401,
          313.759 -1.822502 338.19,
          317.14697 -5.830502 343.03003,
          314.332 -9.8525028 339.008,
          313.759 -11.020502 338.19,
          311.315 -14.510502 335.74701,
          308.91199 -19.664501 333.34302,
          335 -1.822502 378.711,
          335 -1.822502 349.289,
          278.36499 -59.822502 378.26599,
          268 -59.822502 364,
          270.86499 -59.822502 372.81702,
          270.86499 -59.822502 355.18298,
          278.36499 -59.822502 349.73401,
          287.63501 -59.822502 349.73401,
          298 -59.822502 364,
          295.13501 -59.822502 355.18298,
          287.63501 -59.822502 378.26599,
          335 -59.822502 349.289,
          295.13501 -59.822502 372.81702,
          335 -59.822502 378.711,
          335 -30.822502 331.37598,
          335 -36.487503 331.87097,
          335 -25.157501 331.87097,
          335 -30.822502 396.62402,
          335 -25.157501 396.12903,
          335 -36.487503 396.12903,
          335 -19.664501 394.65698,
          335 -14.510502 392.25299,
          335 -41.980503 394.65698,
          335 -47.134502 392.25299,
          335 -9.8525028 388.992,
          335 -5.830502 384.96997,
          335 -51.792503 388.992,
          335 -55.814503 384.96997,
          335 -2.5695021 380.31201,
          335 -59.0755 380.31201,
          335 -55.814503 343.03003,
          335 -59.0755 347.68799,
          335 -51.792503 339.008,
          335 -9.8525028 339.008,
          335 -5.830502 343.03003,
          335 -2.5695021 347.68799,
          335 -47.134502 335.74701,
          335 -41.980503 333.34302,
          335 -19.664501 333.34302,
          335 -14.510502 335.74701,
          278.36499 -49.822502 349.73401,
          278.36499 -49.822502 378.26599,
          270.86499 -49.822502 372.81702,
          287.63501 -49.822502 378.26599,
          287.63501 -49.822502 349.73401,
          295.13501 -49.822502 355.18298,
          268 -49.822502 364,
          298 -49.822502 364,
          295.13501 -49.822502 372.81702,
          270.86499 -49.822502 355.18298 ]

    }
    IndexedFaceSet {
      coordIndex [ 10, 11, 12, -1, 11, 10, 13, -1,
          14, 15, 16, -1, 15, 14, 17, -1,
          13, 18, 11, -1, 17, 19, 15, -1,
          16, 10, 14, -1, 12, 14, 10, -1,
          5, 6, 10, -1, 6, 7, 13, -1,
          7, 9, 18, -1, 9, 0, 11, -1,
          0, 8, 12, -1, 8, 1, 14, -1,
          1, 2, 17, -1, 2, 3, 19, -1,
          3, 4, 15, -1, 4, 5, 16, -1,
          16, 15, 4, -1, 15, 19, 3, -1,
          19, 17, 2, -1, 17, 14, 1, -1,
          14, 12, 8, -1, 11, 0, 12, -1,
          11, 18, 9, -1, 18, 13, 7, -1,
          13, 10, 6, -1, 10, 16, 5, -1,
          20, 21, 22, -1, 20, 23, 21, -1,
          20, 24, 23, -1, 22, 25, 20, -1,
          25, 26, 27, -1, 25, 28, 26, -1,
          25, 22, 28, -1, 27, 29, 25, -1,
          29, 27, 30, -1, 30, 31, 29, -1,
          32, 33, 34, -1, 34, 35, 32, -1,
          36, 37, 33, -1, 36, 38, 37, -1,
          36, 39, 38, -1, 33, 32, 36, -1,
          40, 41, 39, -1, 40, 42, 41, -1,
          40, 43, 42, -1, 39, 36, 40, -1,
          44, 45, 43, -1, 46, 47, 48, -1,
          46, 49, 50, -1, 44, 48, 45, -1,
          50, 47, 46, -1, 48, 44, 46, -1,
          43, 40, 44, -1, 51, 46, 44, -1,
          44, 52, 51, -1, 53, 51, 52, -1,
          52, 54, 53, -1, 55, 53, 54, -1,
          54, 56, 55, -1, 57, 55, 56, -1,
          56, 58, 57, -1, 59, 57, 58, -1,
          58, 60, 59, -1, 61, 59, 60, -1,
          60, 62, 61, -1, 63, 61, 62, -1,
          62, 64, 63, -1, 65, 63, 64, -1,
          64, 66, 65, -1, 67, 65, 66, -1,
          66, 68, 67, -1, 69, 67, 68, -1,
          68, 70, 69, -1, 71, 69, 70, -1,
          70, 72, 71, -1, 73, 71, 72, -1,
          72, 74, 73, -1, 75, 73, 74, -1,
          74, 76, 75, -1, 77, 75, 76, -1,
          76, 78, 77, -1, 79, 77, 78, -1,
          78, 80, 79, -1, 81, 79, 80, -1,
          80, 82, 81, -1, 83, 81, 82, -1,
          82, 84, 83, -1, 85, 83, 84, -1,
          84, 86, 85, -1, 87, 85, 86, -1,
          86, 88, 87, -1, 89, 87, 88, -1,
          88, 90, 89, -1, 91, 89, 90, -1,
          90, 92, 91, -1, 93, 91, 92, -1,
          92, 94, 93, -1, 95, 93, 94, -1,
          94, 96, 95, -1, 97, 95, 96, -1,
          96, 98, 97, -1, 97, 99, 24, -1,
          98, 100, 101, -1, 98, 102, 103, -1,
          97, 101, 99, -1, 103, 100, 98, -1,
          101, 97, 98, -1, 24, 20, 97, -1,
          102, 104, 105, -1, 105, 106, 102, -1,
          106, 107, 102, -1, 107, 103, 102, -1,
          104, 108, 109, -1, 109, 110, 104, -1,
          110, 111, 104, -1, 111, 105, 104, -1,
          108, 112, 113, -1, 113, 109, 108, -1,
          114, 115, 116, -1, 116, 117, 114, -1,
          118, 114, 117, -1, 117, 119, 118, -1,
          119, 120, 118, -1, 120, 121, 118, -1,
          49, 118, 121, -1, 121, 122, 49, -1,
          122, 123, 49, -1, 123, 50, 49, -1,
          55, 93, 95, -1, 77, 71, 73, -1,
          77, 67, 69, -1, 77, 63, 65, -1,
          46, 51, 53, -1, 95, 97, 55, -1,
          55, 87, 89, -1, 69, 71, 77, -1,
          77, 61, 63, -1, 77, 57, 59, -1,
          55, 49, 46, -1, 55, 114, 118, -1,
          55, 25, 29, -1, 55, 91, 93, -1,
          55, 85, 87, -1, 55, 81, 83, -1,
          55, 77, 79, -1, 65, 67, 77, -1,
          77, 55, 57, -1, 118, 49, 55, -1,
          55, 31, 115, -1, 55, 20, 25, -1,
          89, 91, 55, -1, 79, 81, 55, -1,
          59, 61, 77, -1, 115, 114, 55, -1,
          31, 124, 125, -1, 97, 20, 55, -1,
          73, 75, 77, -1, 125, 115, 31, -1,
          83, 85, 55, -1, 29, 31, 55, -1,
          53, 55, 46, -1, 126, 92, 90, -1,
          126, 94, 92, -1, 126, 102, 98, -1,
          127, 128, 78, -1, 126, 96, 94, -1,
          126, 104, 102, -1, 126, 86, 84, -1,
          128, 80, 78, -1, 127, 72, 70, -1,
          98, 96, 126, -1, 126, 112, 108, -1,
          126, 88, 86, -1, 78, 76, 127, -1,
          129, 70, 68, -1, 127, 74, 72, -1,
          130, 129, 64, -1, 56, 131, 130, -1,
          131, 44, 40, -1, 35, 132, 133, -1,
          108, 104, 126, -1, 84, 128, 126, -1,
          128, 82, 80, -1, 70, 129, 127, -1,
          64, 62, 130, -1, 131, 56, 54, -1,
          130, 60, 58, -1, 112, 126, 134, -1,
          40, 133, 131, -1, 133, 36, 32, -1,
          84, 82, 128, -1, 68, 66, 129, -1,
          129, 66, 64, -1, 130, 58, 56, -1,
          135, 134, 136, -1, 134, 137, 112, -1,
          134, 135, 137, -1, 131, 52, 44, -1,
          35, 136, 132, -1, 76, 74, 127, -1,
          54, 52, 131, -1, 136, 35, 135, -1,
          133, 32, 35, -1, 62, 60, 130, -1,
          40, 36, 133, -1, 90, 88, 126, -1,
          138, 139, 45, -1, 45, 48, 138, -1,
          138, 48, 47, -1, 47, 140, 138, -1,
          141, 142, 99, -1, 99, 101, 141, -1,
          141, 101, 100, -1, 100, 143, 141, -1,
          144, 145, 21, -1, 21, 23, 144, -1,
          142, 144, 23, -1, 23, 24, 142, -1,
          24, 99, 142, -1, 143, 103, 107, -1,
          143, 100, 103, -1, 107, 146, 143, -1,
          146, 107, 106, -1, 106, 147, 146, -1,
          148, 149, 26, -1, 26, 28, 148, -1,
          145, 148, 28, -1, 28, 22, 145, -1,
          22, 21, 145, -1, 147, 105, 111, -1,
          147, 106, 105, -1, 111, 150, 147, -1,
          150, 111, 110, -1, 110, 151, 150, -1,
          149, 152, 30, -1, 30, 27, 149, -1,
          27, 26, 149, -1, 151, 109, 113, -1,
          151, 110, 109, -1, 113, 153, 151, -1,
          154, 155, 34, -1, 34, 33, 154, -1,
          33, 37, 154, -1, 156, 154, 37, -1,
          37, 38, 156, -1, 157, 120, 119, -1,
          119, 158, 157, -1, 158, 117, 116, -1,
          158, 119, 117, -1, 116, 159, 158, -1,
          160, 156, 38, -1, 38, 39, 160, -1,
          39, 41, 160, -1, 161, 160, 41, -1,
          41, 42, 161, -1, 139, 161, 42, -1,
          42, 43, 139, -1, 43, 45, 139, -1,
          140, 50, 123, -1, 140, 47, 50, -1,
          123, 162, 140, -1, 162, 123, 122, -1,
          122, 163, 162, -1, 163, 121, 120, -1,
          163, 122, 121, -1, 120, 157, 163, -1,
          152, 124, 31, -1, 31, 30, 152, -1,
          159, 116, 115, -1, 115, 125, 159, -1,
          153, 113, 112, -1, 112, 137, 153, -1,
          155, 135, 35, -1, 35, 34, 155, -1,
          5, 6, 144, -1, 7, 152, 149, -1,
          6, 145, 144, -1, 5, 143, 146, -1,
          3, 4, 151, -1, 8, 1, 161, -1,
          8, 140, 162, -1, 9, 0, 158, -1,
          149, 6, 7, -1, 144, 142, 5, -1,
          4, 146, 147, -1, 5, 141, 143, -1,
          151, 153, 3, -1, 2, 155, 154, -1,
          1, 160, 161, -1, 162, 0, 8, -1,
          158, 159, 9, -1, 7, 124, 152, -1,
          6, 148, 145, -1, 146, 4, 5, -1,
          4, 150, 151, -1, 154, 1, 2, -1,
          161, 139, 8, -1, 163, 0, 162, -1,
          0, 157, 158, -1, 124, 7, 9, -1,
          142, 141, 5, -1, 153, 137, 3, -1,
          137, 135, 2, -1, 2, 135, 155, -1,
          1, 156, 160, -1, 159, 125, 9, -1,
          149, 148, 6, -1, 2, 3, 137, -1,
          139, 138, 8, -1, 9, 125, 124, -1,
          154, 156, 1, -1, 147, 150, 4, -1,
          157, 0, 163, -1, 8, 138, 140, -1,
          164, 165, 166, -1, 167, 168, 169, -1,
          166, 170, 164, -1, 169, 171, 167, -1,
          164, 167, 165, -1, 167, 164, 168, -1,
          171, 172, 167, -1, 170, 173, 164, -1,
          170, 166, 128, -1, 166, 165, 126, -1,
          165, 167, 134, -1, 167, 172, 136, -1,
          172, 171, 132, -1, 171, 169, 133, -1,
          168, 131, 133, -1, 168, 164, 130, -1,
          173, 129, 130, -1, 173, 170, 127, -1,
          127, 129, 173, -1, 130, 164, 173, -1,
          130, 131, 168, -1, 133, 169, 168, -1,
          133, 132, 171, -1, 132, 136, 172, -1,
          136, 134, 167, -1, 134, 126, 165, -1,
          126, 128, 166, -1, 128, 127, 170, -1,
          11, 10, 16, -1, 15, 14, 12, -1,
          14, 15, 19, -1, 19, 17, 14, -1,
          12, 11, 15, -1, 16, 15, 11, -1,
          16, 10, 6, -1, 10, 13, 7, -1,
          13, 18, 9, -1, 11, 0, 18, -1,
          11, 12, 8, -1, 12, 14, 1, -1,
          14, 17, 2, -1, 17, 19, 3, -1,
          19, 15, 4, -1, 15, 16, 5, -1,
          5, 4, 15, -1, 4, 3, 19, -1,
          3, 2, 17, -1, 2, 1, 14, -1,
          1, 8, 12, -1, 8, 0, 11, -1,
          0, 9, 18, -1, 9, 7, 13, -1,
          7, 6, 10, -1, 6, 5, 16, -1 ]
      materialIndex [ 0, 0, 0, 0, 0, 0, 0, 0,
          0, 0, 0, 0, 0, 0, 0, 0,
          0, 0, 0, 0, 0, 0, 0, 0,
          0, 0, 0, 0, 0, 0, 0, 0,
          0, 0, 0, 0, 0, 0, 0, 0,
          0, 0, 0, 0, 0, 0, 0, 0,
          0, 0, 0, 0, 0, 0, 0, 0,
          0, 0, 0, 0, 0, 0, 0, 0,
          0, 0, 0, 0, 0, 0, 0, 0,
          0, 0, 0, 0, 0, 0, 0, 0,
          0, 0, 0, 0, 0, 0, 0, 0,
          0, 0, 0, 0, 0, 0, 0, 0,
          0, 0, 0, 0, 0, 0, 0, 0,
          0, 0, 0, 0, 0, 0, 0, 0,
          0, 0, 0, 0, 0, 0, 0, 0,
          0, 0, 0, 0, 0, 0, 0, 0,
          0, 0, 0, 0, 0, 0, 0, 0,
          0, 0, 0, 0, 0, 0, 0, 0,
          0, 0, 0, 0, 0, 0, 0, 0,
          0, 0, 0, 0, 0, 0, 0, 0,
          0, 0, 0, 0, 0, 0, 0, 0,
          0, 0, 0, 0, 0, 0, 0, 0,
          0, 0, 0, 0, 0, 0, 0, 0,
          0, 0, 0, 0, 0, 0, 0, 0,
          0, 0, 0, 0, 0, 0, 0, 0,
          0, 0, 0, 0, 0, 0, 0, 0,
          0, 0, 0, 0, 0, 0, 0, 0,
          0, 0, 0, 0, 0, 0, 0, 0,
          0, 0, 0, 0, 0, 0, 0, 0,
          0, 0, 0, 0, 0, 0, 0, 0,
          0, 0, 0, 0, 0, 0, 0, 0,
          0, 0, 0, 0, 0, 0, 0, 0,
          0, 0, 0, 0, 0, 0, 0, 0,
          0, 0, 0, 0, 0, 0, 0, 0,
          0, 0, 0, 0, 0, 0, 0, 0,
          0, 0, 0, 0, 0, 0, 0, 0,
          0, 0, 0, 0, 0, 0, 0, 0,
          0, 0, 0, 0, 0, 0, 0, 0,
          0, 0, 0, 0, 0, 0, 0, 0,
          0, 0, 0, 0, 0, 0, 0, 0,
          0, 0, 0, 0, 0, 0, 0, 0,
          0, 0, 0, 0, 0, 0, 0, 0,
          0, 0, 0, 0, 0, 0, 0, 0,
          0, 0, 0, 0, 0, 0, 0, 0,
          0, 0, 0, 0, 0, 0, 0, 0,
          0, 0, 0, 0, 0, 0, 0, 0,
          0, 0 ]

    }
  }
}
