#
# Material file
# Created by SpaceClaim
#

newmtl mtl_0
Kd 0.6980392 0.6980392 0.6980392
Ks 0.8 0.8 0.8
Ka 0.2 0.2 0.2

newmtl mtl_1
Kd 0.4823529 0.4823529 0.4823529
Ks 0.8 0.8 0.8
Ka 0.2 0.2 0.2

newmtl mtl_2
Kd 0.6 0.6862745 0.5607843
Ks 0.8 0.8 0.8
Ka 0.2 0.2 0.2

newmtl mtl_3
Kd 0.8823529 0.8823529 0.8823529
Ks 0.8 0.8 0.8
Ka 0.2 0.2 0.2

newmtl mtl_4
Kd 0.682353 0.682353 0.682353
Ks 0.8 0.8 0.8
Ka 0.2 0.2 0.2

newmtl mtl_5
Kd 0.6862745 0.5607843 0.5607843
Ks 0.8 0.8 0.8
Ka 0.2 0.2 0.2

newmtl mtl_6
Kd 0.5607843 0.6862745 0.5607843
Ks 0.8 0.8 0.8
Ka 0.2 0.2 0.2
d 0.5
