#VRML V1.0 ascii
Separator {
MaterialBinding {
value PER_FACE_INDEXED
}
Material {
ambientColor [
 0.752941 0.752941 0.752941, 0.249020 0.249020 0.249020, 0.249020 0.249020 0.249020, 0.249020 0.249020 0.249020, 0.249020 0.249020 0.249020,
 0.249020 0.249020 0.249020, 0.249020 0.249020 0.249020, 0.249020 0.249020 0.249020, 0.249020 0.249020 0.249020, 0.249020 0.249020 0.249020,
 0.249020 0.249020 0.249020, 0.249020 0.249020 0.249020, 0.249020 0.249020 0.249020, 0.249020 0.249020 0.249020, 0.249020 0.249020 0.249020,
 0.249020 0.249020 0.249020, 0.249020 0.249020 0.249020, 0.249020 0.249020 0.249020, 0.249020 0.249020 0.249020, 0.249020 0.249020 0.249020,
 0.249020 0.249020 0.249020, 0.249020 0.249020 0.249020, 0.249020 0.249020 0.249020, 0.249020 0.249020 0.249020, 0.249020 0.249020 0.249020,
 0.249020 0.249020 0.249020, 0.249020 0.249020 0.249020, 0.249020 0.249020 0.249020, 0.249020 0.249020 0.249020, 0.249020 0.249020 0.249020,
 0.249020 0.249020 0.249020, 0.249020 0.249020 0.249020, 0.249020 0.249020 0.249020, 0.249020 0.249020 0.249020, 0.249020 0.249020 0.249020,
 0.249020 0.249020 0.249020, 0.249020 0.249020 0.249020, 0.249020 0.249020 0.249020, 0.249020 0.249020 0.249020, 0.249020 0.249020 0.249020,
 0.249020 0.249020 0.249020, 0.249020 0.249020 0.249020, 0.249020 0.249020 0.249020, 0.249020 0.249020 0.249020, 0.249020 0.249020 0.249020,
 0.249020 0.249020 0.249020, 0.249020 0.249020 0.249020, 0.249020 0.249020 0.249020, 0.249020 0.249020 0.249020, 0.249020 0.249020 0.249020,
 0.249020 0.249020 0.249020, 0.249020 0.249020 0.249020, 0.249020 0.249020 0.249020, 0.249020 0.249020 0.249020, 0.249020 0.249020 0.249020,
 0.249020 0.249020 0.249020
]
diffuseColor [
 0.594824 0.594824 0.594824, 0.249020 0.249020 0.249020, 0.249020 0.249020 0.249020, 0.249020 0.249020 0.249020, 0.249020 0.249020 0.249020,
 0.249020 0.249020 0.249020, 0.249020 0.249020 0.249020, 0.249020 0.249020 0.249020, 0.249020 0.249020 0.249020, 0.249020 0.249020 0.249020,
 0.249020 0.249020 0.249020, 0.249020 0.249020 0.249020, 0.249020 0.249020 0.249020, 0.249020 0.249020 0.249020, 0.249020 0.249020 0.249020,
 0.249020 0.249020 0.249020, 0.249020 0.249020 0.249020, 0.249020 0.249020 0.249020, 0.249020 0.249020 0.249020, 0.249020 0.249020 0.249020,
 0.249020 0.249020 0.249020, 0.249020 0.249020 0.249020, 0.249020 0.249020 0.249020, 0.249020 0.249020 0.249020, 0.249020 0.249020 0.249020,
 0.249020 0.249020 0.249020, 0.249020 0.249020 0.249020, 0.249020 0.249020 0.249020, 0.249020 0.249020 0.249020, 0.249020 0.249020 0.249020,
 0.249020 0.249020 0.249020, 0.249020 0.249020 0.249020, 0.249020 0.249020 0.249020, 0.249020 0.249020 0.249020, 0.249020 0.249020 0.249020,
 0.249020 0.249020 0.249020, 0.249020 0.249020 0.249020, 0.249020 0.249020 0.249020, 0.249020 0.249020 0.249020, 0.249020 0.249020 0.249020,
 0.249020 0.249020 0.249020, 0.249020 0.249020 0.249020, 0.249020 0.249020 0.249020, 0.249020 0.249020 0.249020, 0.249020 0.249020 0.249020,
 0.249020 0.249020 0.249020, 0.249020 0.249020 0.249020, 0.249020 0.249020 0.249020, 0.249020 0.249020 0.249020, 0.249020 0.249020 0.249020,
 0.249020 0.249020 0.249020, 0.249020 0.249020 0.249020, 0.249020 0.249020 0.249020, 0.249020 0.249020 0.249020, 0.249020 0.249020 0.249020,
 0.249020 0.249020 0.249020
]
emissiveColor [
 0.158118 0.158118 0.158118, 0.249020 0.249020 0.249020, 0.249020 0.249020 0.249020, 0.249020 0.249020 0.249020, 0.249020 0.249020 0.249020,
 0.249020 0.249020 0.249020, 0.249020 0.249020 0.249020, 0.249020 0.249020 0.249020, 0.249020 0.249020 0.249020, 0.249020 0.249020 0.249020,
 0.249020 0.249020 0.249020, 0.249020 0.249020 0.249020, 0.249020 0.249020 0.249020, 0.249020 0.249020 0.249020, 0.249020 0.249020 0.249020,
 0.249020 0.249020 0.249020, 0.249020 0.249020 0.249020, 0.249020 0.249020 0.249020, 0.249020 0.249020 0.249020, 0.249020 0.249020 0.249020,
 0.249020 0.249020 0.249020, 0.249020 0.249020 0.249020, 0.249020 0.249020 0.249020, 0.249020 0.249020 0.249020, 0.249020 0.249020 0.249020,
 0.249020 0.249020 0.249020, 0.249020 0.249020 0.249020, 0.249020 0.249020 0.249020, 0.249020 0.249020 0.249020, 0.249020 0.249020 0.249020,
 0.249020 0.249020 0.249020, 0.249020 0.249020 0.249020, 0.249020 0.249020 0.249020, 0.249020 0.249020 0.249020, 0.249020 0.249020 0.249020,
 0.249020 0.249020 0.249020, 0.249020 0.249020 0.249020, 0.249020 0.249020 0.249020, 0.249020 0.249020 0.249020, 0.249020 0.249020 0.249020,
 0.249020 0.249020 0.249020, 0.249020 0.249020 0.249020, 0.249020 0.249020 0.249020, 0.249020 0.249020 0.249020, 0.249020 0.249020 0.249020,
 0.249020 0.249020 0.249020, 0.249020 0.249020 0.249020, 0.249020 0.249020 0.249020, 0.249020 0.249020 0.249020, 0.249020 0.249020 0.249020,
 0.249020 0.249020 0.249020, 0.249020 0.249020 0.249020, 0.249020 0.249020 0.249020, 0.249020 0.249020 0.249020, 0.249020 0.249020 0.249020,
 0.249020 0.249020 0.249020
]
specularColor [
 0.662588 0.662588 0.662588, 0.249020 0.249020 0.249020, 0.249020 0.249020 0.249020, 0.249020 0.249020 0.249020, 0.249020 0.249020 0.249020,
 0.249020 0.249020 0.249020, 0.249020 0.249020 0.249020, 0.249020 0.249020 0.249020, 0.249020 0.249020 0.249020, 0.249020 0.249020 0.249020,
 0.249020 0.249020 0.249020, 0.249020 0.249020 0.249020, 0.249020 0.249020 0.249020, 0.249020 0.249020 0.249020, 0.249020 0.249020 0.249020,
 0.249020 0.249020 0.249020, 0.249020 0.249020 0.249020, 0.249020 0.249020 0.249020, 0.249020 0.249020 0.249020, 0.249020 0.249020 0.249020,
 0.249020 0.249020 0.249020, 0.249020 0.249020 0.249020, 0.249020 0.249020 0.249020, 0.249020 0.249020 0.249020, 0.249020 0.249020 0.249020,
 0.249020 0.249020 0.249020, 0.249020 0.249020 0.249020, 0.249020 0.249020 0.249020, 0.249020 0.249020 0.249020, 0.249020 0.249020 0.249020,
 0.249020 0.249020 0.249020, 0.249020 0.249020 0.249020, 0.249020 0.249020 0.249020, 0.249020 0.249020 0.249020, 0.249020 0.249020 0.249020,
 0.249020 0.249020 0.249020, 0.249020 0.249020 0.249020, 0.249020 0.249020 0.249020, 0.249020 0.249020 0.249020, 0.249020 0.249020 0.249020,
 0.249020 0.249020 0.249020, 0.249020 0.249020 0.249020, 0.249020 0.249020 0.249020, 0.249020 0.249020 0.249020, 0.249020 0.249020 0.249020,
 0.249020 0.249020 0.249020, 0.249020 0.249020 0.249020, 0.249020 0.249020 0.249020, 0.249020 0.249020 0.249020, 0.249020 0.249020 0.249020,
 0.249020 0.249020 0.249020, 0.249020 0.249020 0.249020, 0.249020 0.249020 0.249020, 0.249020 0.249020 0.249020, 0.249020 0.249020 0.249020,
 0.249020 0.249020 0.249020
]
shininess [
 0.210000, 0.500000, 0.500000, 0.500000, 0.500000, 0.500000, 0.500000, 0.500000, 0.500000, 0.500000,
 0.210000, 0.500000, 0.500000, 0.500000, 0.500000, 0.500000, 0.500000, 0.500000, 0.500000, 0.500000, 0.500000, 0.500000, 0.500000, 0.500000, 0.500000, 0.500000, 0.500000, 0.500000, 0.500000, 0.500000,
 0.210000, 0.500000, 0.500000, 0.500000, 0.500000, 0.500000, 0.500000, 0.500000, 0.500000, 0.500000, 0.500000, 0.500000, 0.500000, 0.500000, 0.500000, 0.500000, 0.500000, 0.500000, 0.500000, 0.500000, 0.500000, 0.500000, 0.500000, 0.500000, 0.500000, 0.500000, 0.500000, 0.500000, 0.500000, 0.500000,
 0.210000, 0.500000, 0.500000, 0.500000, 0.500000, 0.500000, 0.500000, 0.500000, 0.500000, 0.500000, 0.500000, 0.500000, 0.500000, 0.500000, 0.500000, 0.500000, 0.500000, 0.500000, 0.500000, 0.500000, 0.500000, 0.500000, 0.500000, 0.500000, 0.500000, 0.500000, 0.500000, 0.500000, 0.500000, 0.500000, 0.500000, 0.500000, 0.500000, 0.500000, 0.500000, 0.500000, 0.500000, 0.500000, 0.500000, 0.500000,
 0.210000, 0.500000, 0.500000, 0.500000, 0.500000, 0.500000, 0.500000, 0.500000, 0.500000, 0.500000, 0.500000, 0.500000, 0.500000, 0.500000, 0.500000, 0.500000, 0.500000, 0.500000, 0.500000, 0.500000, 0.500000, 0.500000, 0.500000, 0.500000, 0.500000, 0.500000, 0.500000, 0.500000, 0.500000, 0.500000, 0.500000, 0.500000, 0.500000, 0.500000, 0.500000, 0.500000, 0.500000, 0.500000, 0.500000, 0.500000, 0.500000, 0.500000, 0.500000, 0.500000, 0.500000, 0.500000, 0.500000, 0.500000, 0.500000, 0.500000,
 0.500000, 0.500000, 0.500000, 0.500000, 0.500000, 0.500000
]
transparency [
 0.000000, 0.000000, 0.000000, 0.000000, 0.000000, 0.000000, 0.000000, 0.000000, 0.000000, 0.000000,
 0.000000, 0.000000, 0.000000, 0.000000, 0.000000, 0.000000, 0.000000, 0.000000, 0.000000, 0.000000, 0.000000, 0.000000, 0.000000, 0.000000, 0.000000, 0.000000, 0.000000, 0.000000, 0.000000, 0.000000,
 0.000000, 0.000000, 0.000000, 0.000000, 0.000000, 0.000000, 0.000000, 0.000000, 0.000000, 0.000000, 0.000000, 0.000000, 0.000000, 0.000000, 0.000000, 0.000000, 0.000000, 0.000000, 0.000000, 0.000000, 0.000000, 0.000000, 0.000000, 0.000000, 0.000000, 0.000000, 0.000000, 0.000000, 0.000000, 0.000000,
 0.000000, 0.000000, 0.000000, 0.000000, 0.000000, 0.000000, 0.000000, 0.000000, 0.000000, 0.000000, 0.000000, 0.000000, 0.000000, 0.000000, 0.000000, 0.000000, 0.000000, 0.000000, 0.000000, 0.000000, 0.000000, 0.000000, 0.000000, 0.000000, 0.000000, 0.000000, 0.000000, 0.000000, 0.000000, 0.000000, 0.000000, 0.000000, 0.000000, 0.000000, 0.000000, 0.000000, 0.000000, 0.000000, 0.000000, 0.000000,
 0.000000, 0.000000, 0.000000, 0.000000, 0.000000, 0.000000, 0.000000, 0.000000, 0.000000, 0.000000, 0.000000, 0.000000, 0.000000, 0.000000, 0.000000, 0.000000, 0.000000, 0.000000, 0.000000, 0.000000, 0.000000, 0.000000, 0.000000, 0.000000, 0.000000, 0.000000, 0.000000, 0.000000, 0.000000, 0.000000, 0.000000, 0.000000, 0.000000, 0.000000, 0.000000, 0.000000, 0.000000, 0.000000, 0.000000, 0.000000, 0.000000, 0.000000, 0.000000, 0.000000, 0.000000, 0.000000, 0.000000, 0.000000, 0.000000, 0.000000,
 0.000000, 0.000000, 0.000000, 0.000000, 0.000000, 0.000000
]
}
Coordinate3 {
point [
 -0.215513 -0.035515 -0.492500, -0.215513 -0.035515 -0.392500, -0.213013 -0.039845 -0.492500, -0.213013 -0.039845 -0.392500, -0.160000 -0.052500 -0.202811,
 -0.160000 -0.052500 -0.142189, -0.160000 0.000000 -0.233122, -0.160000 0.000000 -0.111878, -0.160000 0.052500 -0.202811, -0.160000 0.052500 -0.142189,
 -0.141013 -0.164553 -0.492500, -0.141013 -0.164553 -0.392500, -0.138513 -0.168883 -0.492500, -0.138513 -0.168883 -0.392500, -0.126933 0.009854 -0.591897,
 -0.126933 0.009854 -0.293103, -0.110041 -0.019403 -0.634000, -0.110041 -0.019403 -0.591897, -0.110041 -0.019403 -0.293103, -0.110041 -0.019403 -0.221919,
 -0.110041 -0.019403 -0.123081, -0.110041 -0.019403 -0.095000, -0.106620 -0.000000 -0.233122, -0.106620 0.000000 -0.111878, -0.101250 0.030455 -0.624440,
 -0.101250 0.030455 -0.260560, -0.097363 0.052500 -0.202811, -0.097363 0.052500 -0.142189, -0.096769 0.055869 -0.634000, -0.096769 0.055869 -0.095000,
 -0.090933 -0.052500 -0.202811, -0.090933 -0.052500 -0.142189, -0.077000 0.072457 -0.624440, -0.077000 0.072457 -0.260560, -0.077000 0.204397 -0.492500,
 -0.077000 0.204397 -0.392500, -0.072000 0.105000 -0.591897, -0.072000 0.105000 -0.293103, -0.072000 0.204397 -0.492500, -0.072000 0.204397 -0.392500,
 -0.071824 -0.085597 -0.634000, -0.071824 -0.085597 -0.591897, -0.071824 -0.085597 -0.293103, -0.071824 -0.085597 -0.095000, -0.054933 -0.114854 -0.591897,
 -0.054933 -0.114854 -0.293103, -0.038217 0.105000 -0.634000, -0.038217 0.105000 -0.591897, -0.038217 0.105000 -0.293103, -0.038217 0.105000 -0.095000,
 -0.024250 -0.102913 -0.624440, -0.024250 -0.102913 -0.260560, -0.000000 -0.111739 -0.634000, -0.000000 -0.111739 -0.095000, 0.024250 -0.102913 -0.624440,
 0.024250 -0.102913 -0.260560, 0.038217 0.105000 -0.634000, 0.038217 0.105000 -0.591897, 0.038217 0.105000 -0.293103, 0.038217 0.105000 -0.095000,
 0.054933 -0.114854 -0.591897, 0.054933 -0.114854 -0.293103, 0.071824 -0.085597 -0.634000, 0.071824 -0.085597 -0.591897, 0.071824 -0.085597 -0.293103,
 0.071824 -0.085597 -0.095000, 0.072000 0.105000 -0.591897, 0.072000 0.105000 -0.293103, 0.072000 0.204397 -0.492500, 0.072000 0.204397 -0.392500,
 0.077000 0.072457 -0.624440, 0.077000 0.072457 -0.260560, 0.077000 0.204397 -0.492500, 0.077000 0.204397 -0.392500, 0.090933 -0.052500 -0.202811,
 0.090933 -0.052500 -0.142189, 0.096769 0.055869 -0.634000, 0.096769 0.055869 -0.095000, 0.097363 0.052500 -0.202811, 0.097363 0.052500 -0.142189,
 0.101250 0.030455 -0.624440, 0.101250 0.030455 -0.260560, 0.106620 0.000000 -0.233122, 0.106620 0.000000 -0.111878, 0.110041 -0.019403 -0.634000,
 0.110041 -0.019403 -0.591897, 0.110041 -0.019403 -0.293103, 0.110041 -0.019403 -0.221919, 0.110041 -0.019403 -0.123081, 0.110041 -0.019403 -0.095000,
 0.126933 0.009854 -0.591897, 0.126933 0.009854 -0.293103, 0.138513 -0.168883 -0.492500, 0.138513 -0.168883 -0.392500, 0.141013 -0.164553 -0.492500,
 0.141013 -0.164553 -0.392500, 0.160000 -0.052500 -0.202811, 0.160000 -0.052500 -0.142189, 0.160000 -0.000000 -0.233122, 0.160000 0.000000 -0.111878,
 0.160000 0.052500 -0.202811, 0.160000 0.052500 -0.142189, 0.213013 -0.039845 -0.492500, 0.213013 -0.039845 -0.392500, 0.215513 -0.035515 -0.492500,
 0.215513 -0.035515 -0.392500
]
}
IndexedFaceSet {
coordIndex [
 104, 105, 102, -1, 102, 105, 103, -1, 97, 96, 99, -1,
 99, 96, 98, -1, 99, 98, 101, -1, 101, 98, 100, -1,
 93, 92, 95, -1, 95, 92, 94, -1, 12, 13, 10, -1,
 10, 13, 11, -1, 9, 8, 7, -1, 7, 8, 6, -1,
 7, 6, 5, -1, 5, 6, 4, -1, 1, 0, 3, -1,
 3, 0, 2, -1, 104, 80, 105, -1, 105, 80, 81, -1,
 101, 79, 99, -1, 99, 79, 83, -1, 100, 78, 101, -1,
 101, 78, 79, -1, 98, 82, 100, -1, 100, 82, 78, -1,
 104, 102, 80, -1, 80, 102, 90, -1, 80, 90, 85, -1,
 103, 91, 102, -1, 102, 91, 90, -1, 103, 105, 91, -1,
 91, 105, 81, -1, 91, 81, 86, -1, 82, 98, 87, -1,
 87, 98, 96, -1, 87, 96, 74, -1, 97, 75, 96, -1,
 96, 75, 74, -1, 99, 83, 97, -1, 97, 83, 88, -1,
 97, 88, 75, -1, 61, 95, 60, -1, 60, 95, 94, -1,
 93, 55, 92, -1, 92, 55, 54, -1, 93, 95, 55, -1,
 55, 95, 61, -1, 55, 61, 64, -1, 94, 92, 60, -1,
 60, 92, 54, -1, 60, 54, 63, -1, 12, 50, 13, -1,
 13, 50, 51, -1, 12, 10, 50, -1, 50, 10, 44, -1,
 50, 44, 41, -1, 11, 45, 10, -1, 10, 45, 44, -1,
 11, 13, 45, -1, 45, 13, 51, -1, 45, 51, 42, -1,
 4, 30, 5, -1, 5, 30, 31, -1, 15, 3, 14, -1,
 14, 3, 2, -1, 1, 25, 0, -1, 0, 25, 24, -1,
 1, 3, 25, -1, 25, 3, 15, -1, 25, 15, 18, -1,
 6, 22, 4, -1, 4, 22, 19, -1, 4, 19, 30, -1,
 8, 26, 6, -1, 6, 26, 22, -1, 9, 27, 8, -1,
 8, 27, 26, -1, 7, 23, 9, -1, 9, 23, 27, -1,
 23, 7, 20, -1, 20, 7, 5, -1, 20, 5, 31, -1,
 2, 0, 14, -1, 14, 0, 24, -1, 14, 24, 17, -1,
 34, 35, 38, -1, 38, 35, 39, -1, 34, 32, 35, -1,
 35, 32, 33, -1, 73, 72, 69, -1, 69, 72, 68, -1,
 73, 71, 72, -1, 72, 71, 70, -1, 81, 78, 86, -1,
 86, 78, 82, -1, 86, 82, 87, -1, 85, 84, 80, -1,
 80, 84, 76, -1, 81, 80, 78, -1, 78, 80, 76, -1,
 78, 76, 79, -1, 79, 76, 77, -1, 79, 77, 83, -1,
 83, 77, 89, -1, 83, 89, 88, -1, 61, 60, 64, -1,
 64, 60, 63, -1, 88, 89, 75, -1, 75, 89, 65, -1,
 75, 65, 74, -1, 74, 65, 64, -1, 74, 64, 87, -1,
 87, 64, 86, -1, 62, 84, 63, -1, 63, 84, 85, -1,
 63, 85, 64, -1, 64, 85, 90, -1, 64, 90, 86, -1,
 86, 90, 91, -1, 62, 63, 54, -1, 64, 65, 55, -1,
 55, 65, 53, -1, 55, 53, 54, -1, 54, 53, 52, -1,
 54, 52, 62, -1, 41, 40, 50, -1, 50, 40, 52, -1,
 50, 52, 51, -1, 51, 52, 53, -1, 51, 53, 42, -1,
 42, 53, 43, -1, 18, 15, 14, -1, 41, 44, 45, -1,
 17, 16, 40, -1, 40, 41, 17, -1, 17, 41, 45, -1,
 17, 45, 14, -1, 14, 45, 42, -1, 14, 42, 18, -1,
 19, 18, 30, -1, 30, 18, 42, -1, 30, 42, 31, -1,
 31, 42, 43, -1, 31, 43, 20, -1, 20, 43, 21, -1,
 17, 24, 16, -1, 16, 24, 28, -1, 26, 25, 22, -1,
 22, 25, 18, -1, 22, 18, 19, -1, 24, 25, 28, -1,
 28, 25, 26, -1, 28, 26, 29, -1, 29, 26, 27, -1,
 29, 27, 21, -1, 21, 27, 23, -1, 21, 23, 20, -1,
 34, 38, 32, -1, 32, 38, 36, -1, 32, 36, 47, -1,
 39, 37, 38, -1, 38, 37, 36, -1, 39, 35, 37, -1,
 37, 35, 33, -1, 37, 33, 48, -1, 47, 46, 32, -1,
 32, 46, 28, -1, 32, 28, 33, -1, 33, 28, 29, -1,
 33, 29, 48, -1, 48, 29, 49, -1, 77, 43, 89, -1,
 89, 43, 53, -1, 89, 53, 65, -1, 29, 21, 49, -1,
 49, 21, 43, -1, 49, 43, 59, -1, 59, 43, 77, -1,
 73, 69, 71, -1, 71, 69, 67, -1, 71, 67, 58, -1,
 67, 69, 66, -1, 66, 69, 68, -1, 68, 72, 66, -1,
 66, 72, 70, -1, 66, 70, 57, -1, 56, 57, 70, -1,
 58, 59, 71, -1, 71, 59, 77, -1, 71, 77, 70, -1,
 70, 77, 76, -1, 70, 76, 56, -1, 40, 16, 52, -1,
 52, 16, 28, -1, 52, 28, 62, -1, 76, 84, 56, -1,
 56, 84, 62, -1, 56, 62, 46, -1, 46, 62, 28, -1,
 58, 67, 66, -1, 47, 36, 37, -1, 48, 49, 59, -1,
 57, 56, 46, -1, 46, 47, 57, -1, 57, 47, 37, -1,
 57, 37, 66, -1, 66, 37, 48, -1, 66, 48, 58, -1,
 58, 48, 59, -1
]
materialIndex [
 1, 1, 2, 2, 2, 2, 3, 3,
 4, 4, 5, 5, 5, 5, 6, 6,
 7, 7, 8, 8, 9, 9,
 10, 10, 11, 11, 11, 12, 12,
 13, 13, 13, 14, 14, 14, 15, 15,
 16, 16, 16, 17, 17, 18, 18,
 19, 19, 19, 20, 20, 20, 21, 21,
 22, 22, 22, 23, 23, 24, 24, 24,
 25, 25, 26, 26, 27, 27,
 28, 28, 28, 29, 29, 29, 30, 30,
 31, 31, 32, 32, 33, 33, 33,
 34, 34, 34, 35, 35, 36, 36,
 37, 37, 38, 38, 39, 39, 39, 39, 39, 39, 39, 39, 39, 39, 39, 39,
 40, 40, 40, 40, 40, 40, 40, 40, 40, 40, 40, 40, 40, 40, 41, 41, 41, 41, 41, 41, 42, 42, 42, 42, 42, 42,
 43, 43, 43, 43, 43, 43, 43, 43, 43, 43, 43, 43, 43, 43, 44, 44, 44, 44, 44, 44, 44, 44, 44, 44, 44, 44, 45, 45, 45,
 46, 46, 47, 47, 47, 48, 48, 48, 48, 48, 48,
 49, 49, 49, 49, 49, 49, 49, 50, 50, 50, 51, 51,
 52, 52, 52, 53, 53, 53, 53, 53, 53, 54, 54, 54, 54, 54, 54, 54,
 55, 55, 55, 55, 55, 55, 55, 55, 55, 55,
]
}
}
