#VRML V1.0 ascii
Separator {
MaterialBinding {
value PER_FACE_INDEXED
}
Material {
ambientColor [
 0.752941 0.752941 0.752941, 0.249020 0.249020 0.249020, 0.249020 0.249020 0.249020, 0.249020 0.249020 0.249020, 0.249020 0.249020 0.249020,
 0.249020 0.249020 0.249020, 0.249020 0.249020 0.249020, 0.249020 0.249020 0.249020, 0.249020 0.249020 0.249020
]
diffuseColor [
 0.594824 0.594824 0.594824, 0.249020 0.249020 0.249020, 0.249020 0.249020 0.249020, 0.249020 0.249020 0.249020, 0.249020 0.249020 0.249020,
 0.249020 0.249020 0.249020, 0.249020 0.249020 0.249020, 0.249020 0.249020 0.249020, 0.249020 0.249020 0.249020
]
emissiveColor [
 0.158118 0.158118 0.158118, 0.249020 0.249020 0.249020, 0.249020 0.249020 0.249020, 0.249020 0.249020 0.249020, 0.249020 0.249020 0.249020,
 0.249020 0.249020 0.249020, 0.249020 0.249020 0.249020, 0.249020 0.249020 0.249020, 0.249020 0.249020 0.249020
]
specularColor [
 0.662588 0.662588 0.662588, 0.249020 0.249020 0.249020, 0.249020 0.249020 0.249020, 0.249020 0.249020 0.249020, 0.249020 0.249020 0.249020,
 0.249020 0.249020 0.249020, 0.249020 0.249020 0.249020, 0.249020 0.249020 0.249020, 0.249020 0.249020 0.249020
]
shininess [
 0.210000, 0.500000, 0.500000, 0.500000, 0.500000, 0.500000, 0.500000, 0.500000, 0.500000
]
transparency [
 0.000000, 0.000000, 0.000000, 0.000000, 0.000000, 0.000000, 0.000000, 0.000000, 0.000000
]
}
Coordinate3 {
point [
 -0.025000 -0.080750 0.151000, -0.025000 -0.080750 0.216000, -0.025000 -0.027500 0.086000, -0.025000 0.027500 0.086000, -0.025000 0.080750 0.151000,
 -0.025000 0.080750 0.216000, 0.025000 -0.080750 0.151000, 0.025000 -0.080750 0.216000, 0.025000 -0.027500 0.086000, 0.025000 0.027500 0.086000,
 0.025000 0.080750 0.151000, 0.025000 0.080750 0.216000
]
}
IndexedFaceSet {
coordIndex [
 11, 7, 10, -1, 10, 7, 6, -1, 10, 6, 9, -1,
 9, 6, 8, -1, 11, 5, 7, -1, 7, 5, 1, -1,
 10, 4, 11, -1, 11, 4, 5, -1, 9, 3, 10, -1,
 10, 3, 4, -1, 8, 2, 9, -1, 9, 2, 3, -1,
 6, 0, 8, -1, 8, 0, 2, -1, 7, 1, 6, -1,
 6, 1, 0, -1, 1, 5, 4, -1, 1, 4, 0, -1,
 0, 4, 3, -1, 0, 3, 2, -1
]
materialIndex [
 1, 1, 1, 1, 2, 2, 3, 3,
 4, 4, 5, 5, 6, 6,
 7, 7, 8, 8, 8, 8,
]
}
}
